0 : 1 Wilfried Zaha 19' 
1 : 1 Gylfi Sigursson 36' 
2 : 1 Leroy Fer 66' 
3 : 1 Leroy Fer 68' 
3 : 2 James Tomkins 75' 
3 : 3 Jack Cork 82' (o.g.)
3 : 4 Christian Benteke 84' 
4 : 4 Llorente 90'+1 
5 : 4 Llorente 90'+3 
